<svg width="200" height="36" viewBox="0 0 200 36" fill="none" xmlns="http://www.w3.org/2000/svg">
    <path
        d="M0 17.5C0 10.0442 6.04416 4 13.5 4H190C195.523 4 200 8.47715 200 14V21C200 26.5228 195.523 31 190 31H13.5C6.04416 31 0 24.9558 0 17.5V17.5Z"
        fill="#F5F5F5" />
    <g clip-path="url(#clip0_16_16)">
        <path
            d="M2.98909 16.6428C3.58389 10.7288 8.88128 6.3999 14.8107 6.98388C15.9259 7.09512 16.9854 7.3732 17.9612 7.79033C18.9092 7.77179 20.2382 7.80887 21.9668 8.0128C20.0616 6.3999 17.6638 5.32463 14.9965 5.06508C8.01697 4.36987 1.76232 9.47739 1.0653 16.4481C0.730725 19.8037 1.74374 22.9924 3.66753 25.4767C4.33667 25.3747 5.06158 25.2264 5.79578 24.9946C3.77905 22.807 2.6731 19.813 2.98909 16.6428Z"
            fill="#07659E" />
        <path
            d="M24.1226 10.8584C23.2583 10.9974 22.5613 11.1457 22.0873 11.257C23.5464 13.287 24.2992 15.8269 24.0297 18.4965C23.4442 24.3363 18.2119 28.6188 12.3568 28.0349C12.329 28.0349 12.3104 28.0256 12.2825 28.0256C10.5725 28.4149 8.5929 28.4334 7.23602 28.3778C8.71372 29.2121 10.3773 29.759 12.171 29.9351C19.0762 30.6211 25.2565 25.5692 25.9442 18.6819C26.223 15.8361 25.526 13.1201 24.1226 10.8584Z"
            fill="#07659E" />
        <path
            d="M23.8438 9.08787C23.7974 9.0786 23.7602 9.0786 23.7137 9.06933C9.27133 7.38227 7.552 15.4004 7.552 15.4004L7.80293 18.9507C8.32338 17.7271 9.29921 15.8825 10.9814 14.1027C13.2676 11.6833 17.2825 9.02298 23.8438 9.08787Z"
            fill="#39ABE2" />
        <path
            d="M11.3625 14.455C9.65243 16.2625 8.68589 18.1721 8.21191 19.3493L12.9889 17.69C12.9889 17.69 12.9889 17.69 14.0948 16.0493C15.7119 13.6671 18.7695 10.5618 24.0483 9.61626C17.5521 9.48649 13.593 12.0912 11.3625 14.455Z"
            fill="#07659E" />
        <path
            d="M3.34198 27.0152C3.38845 27.0245 3.42562 27.0338 3.47209 27.0338C17.7751 29.6385 19.9963 21.7501 19.9963 21.7501L19.9684 18.1906C19.3736 19.3771 18.2769 21.1569 16.4925 22.8347C14.0669 25.0964 9.89402 27.4972 3.34198 27.0152Z"
            fill="#39ABE2" />
        <path
            d="M16.1394 22.4546C17.961 20.7583 19.0483 18.9136 19.5967 17.7642L14.7268 19.1175C14.7268 19.1175 14.7268 19.1175 13.5186 20.6841C11.7528 22.9551 8.50932 25.8658 3.17474 26.4683C9.65244 27.0152 13.7602 24.67 16.1394 22.4546Z"
            fill="#07659E" />
    </g>
    <path
        d="M38.5039 19.8027C38.5039 19.627 38.4766 19.4707 38.4219 19.334C38.3711 19.1973 38.2793 19.0723 38.1465 18.959C38.0137 18.8457 37.8262 18.7363 37.584 18.6309C37.3457 18.5215 37.041 18.4102 36.6699 18.2969C36.2637 18.1719 35.8887 18.0332 35.5449 17.8809C35.2051 17.7246 34.9082 17.5449 34.6543 17.3418C34.4004 17.1348 34.2031 16.8984 34.0625 16.6328C33.9219 16.3633 33.8516 16.0527 33.8516 15.7012C33.8516 15.3535 33.9238 15.0371 34.0684 14.752C34.2168 14.4668 34.4258 14.2207 34.6953 14.0137C34.9688 13.8027 35.291 13.6406 35.6621 13.5273C36.0332 13.4102 36.4434 13.3516 36.8926 13.3516C37.5254 13.3516 38.0703 13.4688 38.5273 13.7031C38.9883 13.9375 39.3418 14.252 39.5879 14.6465C39.8379 15.041 39.9629 15.4766 39.9629 15.9531H38.5039C38.5039 15.6719 38.4434 15.4238 38.3223 15.209C38.2051 14.9902 38.0254 14.8184 37.7832 14.6934C37.5449 14.5684 37.2422 14.5059 36.875 14.5059C36.5273 14.5059 36.2383 14.5586 36.0078 14.6641C35.7773 14.7695 35.6055 14.9121 35.4922 15.0918C35.3789 15.2715 35.3223 15.4746 35.3223 15.7012C35.3223 15.8613 35.3594 16.0078 35.4336 16.1406C35.5078 16.2695 35.6211 16.3906 35.7734 16.5039C35.9258 16.6133 36.1172 16.7168 36.3477 16.8145C36.5781 16.9121 36.8496 17.0059 37.1621 17.0957C37.6348 17.2363 38.0469 17.3926 38.3984 17.5645C38.75 17.7324 39.043 17.9238 39.2773 18.1387C39.5117 18.3535 39.6875 18.5977 39.8047 18.8711C39.9219 19.1406 39.9805 19.4473 39.9805 19.791C39.9805 20.1504 39.9082 20.4746 39.7637 20.7637C39.6191 21.0488 39.4121 21.293 39.1426 21.4961C38.877 21.6953 38.5566 21.8496 38.1816 21.959C37.8105 22.0645 37.3965 22.1172 36.9395 22.1172C36.5293 22.1172 36.125 22.0625 35.7266 21.9531C35.332 21.8438 34.9727 21.6777 34.6484 21.4551C34.3242 21.2285 34.0664 20.9473 33.875 20.6113C33.6836 20.2715 33.5879 19.875 33.5879 19.4219H35.0586C35.0586 19.6992 35.1055 19.9355 35.1992 20.1309C35.2969 20.3262 35.4316 20.4863 35.6035 20.6113C35.7754 20.7324 35.9746 20.8223 36.2012 20.8809C36.4316 20.9395 36.6777 20.9688 36.9395 20.9688C37.2832 20.9688 37.5703 20.9199 37.8008 20.8223C38.0352 20.7246 38.2109 20.5879 38.3281 20.4121C38.4453 20.2363 38.5039 20.0332 38.5039 19.8027ZM47.3184 13.4688H48.7832V19.1699C48.7832 19.8184 48.6426 20.3613 48.3613 20.7988C48.0801 21.2363 47.6973 21.5664 47.2129 21.7891C46.7324 22.0078 46.1953 22.1172 45.6016 22.1172C44.9883 22.1172 44.4414 22.0078 43.9609 21.7891C43.4805 21.5664 43.1016 21.2363 42.8242 20.7988C42.5508 20.3613 42.4141 19.8184 42.4141 19.1699V13.4688H43.8789V19.1699C43.8789 19.5801 43.9492 19.918 44.0898 20.1836C44.2305 20.4453 44.4297 20.6387 44.6875 20.7637C44.9453 20.8887 45.25 20.9512 45.6016 20.9512C45.9531 20.9512 46.2559 20.8887 46.5098 20.7637C46.7676 20.6387 46.9668 20.4453 47.1074 20.1836C47.248 19.918 47.3184 19.5801 47.3184 19.1699V13.4688ZM54.832 18.1445H52.6582L52.6465 17.0723H54.5449C54.8652 17.0723 55.1367 17.0254 55.3594 16.9316C55.5859 16.834 55.7578 16.6953 55.875 16.5156C55.9922 16.332 56.0508 16.1113 56.0508 15.8535C56.0508 15.5684 55.9961 15.3359 55.8867 15.1562C55.7773 14.9766 55.6094 14.8457 55.3828 14.7637C55.1602 14.6816 54.875 14.6406 54.5273 14.6406H53.1035V22H51.6328V13.4688H54.5273C54.9961 13.4688 55.4141 13.5137 55.7812 13.6035C56.1523 13.6934 56.4668 13.834 56.7246 14.0254C56.9863 14.2129 57.1836 14.4512 57.3164 14.7402C57.4531 15.0293 57.5215 15.373 57.5215 15.7715C57.5215 16.123 57.4375 16.4453 57.2695 16.7383C57.1016 17.0273 56.8535 17.2637 56.5254 17.4473C56.1973 17.6309 55.7891 17.7402 55.3008 17.7754L54.832 18.1445ZM54.7676 22H52.1953L52.8574 20.834H54.7676C55.0996 20.834 55.377 20.7793 55.5996 20.6699C55.8223 20.5566 55.9883 20.4023 56.0977 20.207C56.2109 20.0078 56.2676 19.7754 56.2676 19.5098C56.2676 19.2324 56.2188 18.9922 56.1211 18.7891C56.0234 18.582 55.8691 18.4238 55.6582 18.3145C55.4473 18.2012 55.1719 18.1445 54.832 18.1445H53.1797L53.1914 17.0723H55.3418L55.6758 17.4766C56.1445 17.4922 56.5293 17.5957 56.8301 17.7871C57.1348 17.9785 57.3613 18.2266 57.5098 18.5312C57.6582 18.8359 57.7324 19.1641 57.7324 19.5156C57.7324 20.0586 57.6133 20.5137 57.375 20.8809C57.1406 21.248 56.8027 21.5273 56.3613 21.7188C55.9199 21.9062 55.3887 22 54.7676 22ZM61.0625 13.4688H62.375L64.8418 20.0488L67.3027 13.4688H68.6152L65.3574 22H64.3145L61.0625 13.4688ZM60.4648 13.4688H61.7129L61.9297 19.1641V22H60.4648V13.4688ZM67.9648 13.4688H69.2188V22H67.748V19.1641L67.9648 13.4688ZM73.7852 13.4688V22H72.3145V13.4688H73.7852ZM81.3516 19.8027C81.3516 19.627 81.3242 19.4707 81.2695 19.334C81.2188 19.1973 81.127 19.0723 80.9941 18.959C80.8613 18.8457 80.6738 18.7363 80.4316 18.6309C80.1934 18.5215 79.8887 18.4102 79.5176 18.2969C79.1113 18.1719 78.7363 18.0332 78.3926 17.8809C78.0527 17.7246 77.7559 17.5449 77.502 17.3418C77.248 17.1348 77.0508 16.8984 76.9102 16.6328C76.7695 16.3633 76.6992 16.0527 76.6992 15.7012C76.6992 15.3535 76.7715 15.0371 76.916 14.752C77.0645 14.4668 77.2734 14.2207 77.543 14.0137C77.8164 13.8027 78.1387 13.6406 78.5098 13.5273C78.8809 13.4102 79.291 13.3516 79.7402 13.3516C80.373 13.3516 80.918 13.4688 81.375 13.7031C81.8359 13.9375 82.1895 14.252 82.4355 14.6465C82.6855 15.041 82.8105 15.4766 82.8105 15.9531H81.3516C81.3516 15.6719 81.291 15.4238 81.1699 15.209C81.0527 14.9902 80.873 14.8184 80.6309 14.6934C80.3926 14.5684 80.0898 14.5059 79.7227 14.5059C79.375 14.5059 79.0859 14.5586 78.8555 14.6641C78.625 14.7695 78.4531 14.9121 78.3398 15.0918C78.2266 15.2715 78.1699 15.4746 78.1699 15.7012C78.1699 15.8613 78.207 16.0078 78.2812 16.1406C78.3555 16.2695 78.4688 16.3906 78.6211 16.5039C78.7734 16.6133 78.9648 16.7168 79.1953 16.8145C79.4258 16.9121 79.6973 17.0059 80.0098 17.0957C80.4824 17.2363 80.8945 17.3926 81.2461 17.5645C81.5977 17.7324 81.8906 17.9238 82.125 18.1387C82.3594 18.3535 82.5352 18.5977 82.6523 18.8711C82.7695 19.1406 82.8281 19.4473 82.8281 19.791C82.8281 20.1504 82.7559 20.4746 82.6113 20.7637C82.4668 21.0488 82.2598 21.293 81.9902 21.4961C81.7246 21.6953 81.4043 21.8496 81.0293 21.959C80.6582 22.0645 80.2441 22.1172 79.7871 22.1172C79.377 22.1172 78.9727 22.0625 78.5742 21.9531C78.1797 21.8438 77.8203 21.6777 77.4961 21.4551C77.1719 21.2285 76.9141 20.9473 76.7227 20.6113C76.5312 20.2715 76.4355 19.875 76.4355 19.4219H77.9062C77.9062 19.6992 77.9531 19.9355 78.0469 20.1309C78.1445 20.3262 78.2793 20.4863 78.4512 20.6113C78.623 20.7324 78.8223 20.8223 79.0488 20.8809C79.2793 20.9395 79.5254 20.9688 79.7871 20.9688C80.1309 20.9688 80.418 20.9199 80.6484 20.8223C80.8828 20.7246 81.0586 20.5879 81.1758 20.4121C81.293 20.2363 81.3516 20.0332 81.3516 19.8027ZM89.8672 19.8027C89.8672 19.627 89.8398 19.4707 89.7852 19.334C89.7344 19.1973 89.6426 19.0723 89.5098 18.959C89.377 18.8457 89.1895 18.7363 88.9473 18.6309C88.709 18.5215 88.4043 18.4102 88.0332 18.2969C87.627 18.1719 87.252 18.0332 86.9082 17.8809C86.5684 17.7246 86.2715 17.5449 86.0176 17.3418C85.7637 17.1348 85.5664 16.8984 85.4258 16.6328C85.2852 16.3633 85.2148 16.0527 85.2148 15.7012C85.2148 15.3535 85.2871 15.0371 85.4316 14.752C85.5801 14.4668 85.7891 14.2207 86.0586 14.0137C86.332 13.8027 86.6543 13.6406 87.0254 13.5273C87.3965 13.4102 87.8066 13.3516 88.2559 13.3516C88.8887 13.3516 89.4336 13.4688 89.8906 13.7031C90.3516 13.9375 90.7051 14.252 90.9512 14.6465C91.2012 15.041 91.3262 15.4766 91.3262 15.9531H89.8672C89.8672 15.6719 89.8066 15.4238 89.6855 15.209C89.5684 14.9902 89.3887 14.8184 89.1465 14.6934C88.9082 14.5684 88.6055 14.5059 88.2383 14.5059C87.8906 14.5059 87.6016 14.5586 87.3711 14.6641C87.1406 14.7695 86.9688 14.9121 86.8555 15.0918C86.7422 15.2715 86.6855 15.4746 86.6855 15.7012C86.6855 15.8613 86.7227 16.0078 86.7969 16.1406C86.8711 16.2695 86.9844 16.3906 87.1367 16.5039C87.2891 16.6133 87.4805 16.7168 87.7109 16.8145C87.9414 16.9121 88.2129 17.0059 88.5254 17.0957C88.998 17.2363 89.4102 17.3926 89.7617 17.5645C90.1133 17.7324 90.4062 17.9238 90.6406 18.1387C90.875 18.3535 91.0508 18.5977 91.168 18.8711C91.2852 19.1406 91.3438 19.4473 91.3438 19.791C91.3438 20.1504 91.2715 20.4746 91.127 20.7637C90.9824 21.0488 90.7754 21.293 90.5059 21.4961C90.2402 21.6953 89.9199 21.8496 89.5449 21.959C89.1738 22.0645 88.7598 22.1172 88.3027 22.1172C87.8926 22.1172 87.4883 22.0625 87.0898 21.9531C86.6953 21.8438 86.3359 21.6777 86.0117 21.4551C85.6875 21.2285 85.4297 20.9473 85.2383 20.6113C85.0469 20.2715 84.9512 19.875 84.9512 19.4219H86.4219C86.4219 19.6992 86.4688 19.9355 86.5625 20.1309C86.6602 20.3262 86.7949 20.4863 86.9668 20.6113C87.1387 20.7324 87.3379 20.8223 87.5645 20.8809C87.7949 20.9395 88.041 20.9688 88.3027 20.9688C88.6465 20.9688 88.9336 20.9199 89.1641 20.8223C89.3984 20.7246 89.5742 20.5879 89.6914 20.4121C89.8086 20.2363 89.8672 20.0332 89.8672 19.8027ZM95.4648 13.4688V22H93.9941V13.4688H95.4648ZM105.346 17.5V17.9688C105.346 18.6133 105.262 19.1914 105.094 19.7031C104.926 20.2148 104.686 20.6504 104.373 21.0098C104.064 21.3691 103.693 21.6445 103.26 21.8359C102.826 22.0234 102.346 22.1172 101.818 22.1172C101.295 22.1172 100.816 22.0234 100.383 21.8359C99.9531 21.6445 99.5801 21.3691 99.2637 21.0098C98.9473 20.6504 98.7012 20.2148 98.5254 19.7031C98.3535 19.1914 98.2676 18.6133 98.2676 17.9688V17.5C98.2676 16.8555 98.3535 16.2793 98.5254 15.7715C98.6973 15.2598 98.9395 14.8242 99.252 14.4648C99.5684 14.1016 99.9414 13.8262 100.371 13.6387C100.805 13.4473 101.283 13.3516 101.807 13.3516C102.334 13.3516 102.814 13.4473 103.248 13.6387C103.682 13.8262 104.055 14.1016 104.367 14.4648C104.68 14.8242 104.92 15.2598 105.088 15.7715C105.26 16.2793 105.346 16.8555 105.346 17.5ZM103.875 17.9688V17.4883C103.875 17.0117 103.828 16.5918 103.734 16.2285C103.645 15.8613 103.51 15.5547 103.33 15.3086C103.154 15.0586 102.938 14.8711 102.68 14.7461C102.422 14.6172 102.131 14.5527 101.807 14.5527C101.482 14.5527 101.193 14.6172 100.939 14.7461C100.686 14.8711 100.469 15.0586 100.289 15.3086C100.113 15.5547 99.9785 15.8613 99.8848 16.2285C99.791 16.5918 99.7441 17.0117 99.7441 17.4883V17.9688C99.7441 18.4453 99.791 18.8672 99.8848 19.2344C99.9785 19.6016 100.115 19.9121 100.295 20.166C100.479 20.416 100.697 20.6055 100.951 20.7344C101.205 20.8594 101.494 20.9219 101.818 20.9219C102.146 20.9219 102.438 20.8594 102.691 20.7344C102.945 20.6055 103.16 20.416 103.336 20.166C103.512 19.9121 103.645 19.6016 103.734 19.2344C103.828 18.8672 103.875 18.4453 103.875 17.9688ZM114.834 13.4688V22H113.363L109.537 15.8887V22H108.066V13.4688H109.537L113.375 19.5918V13.4688H114.834ZM125.303 13.4688V22H123.844V13.4688H125.303ZM127.98 13.4688V14.6406H121.189V13.4688H127.98ZM135.939 20.834V22H131.41V20.834H135.939ZM131.826 13.4688V22H130.355V13.4688H131.826ZM135.348 17.0312V18.1797H131.41V17.0312H135.348ZM135.91 13.4688V14.6406H131.41V13.4688H135.91ZM138.988 13.4688H140.301L142.768 20.0488L145.229 13.4688H146.541L143.283 22H142.24L138.988 13.4688ZM138.391 13.4688H139.639L139.855 19.1641V22H138.391V13.4688ZM145.891 13.4688H147.145V22H145.674V19.1641L145.891 13.4688ZM153.381 18.8184H151.16V17.6523H153.381C153.768 17.6523 154.08 17.5898 154.318 17.4648C154.557 17.3398 154.73 17.168 154.84 16.9492C154.953 16.7266 155.01 16.4727 155.01 16.1875C155.01 15.918 154.953 15.666 154.84 15.4316C154.73 15.1934 154.557 15.002 154.318 14.8574C154.08 14.7129 153.768 14.6406 153.381 14.6406H151.611V22H150.141V13.4688H153.381C154.041 13.4688 154.602 13.5859 155.062 13.8203C155.527 14.0508 155.881 14.3711 156.123 14.7812C156.365 15.1875 156.486 15.6523 156.486 16.1758C156.486 16.7266 156.365 17.1992 156.123 17.5938C155.881 17.9883 155.527 18.291 155.062 18.502C154.602 18.7129 154.041 18.8184 153.381 18.8184ZM164.398 20.834V22H160.115V20.834H164.398ZM160.525 13.4688V22H159.055V13.4688H160.525ZM170.225 14.6055L167.676 22H166.135L169.346 13.4688H170.33L170.225 14.6055ZM172.357 22L169.803 14.6055L169.691 13.4688H170.682L173.904 22H172.357ZM172.234 18.8359V20.002H167.594V18.8359H172.234ZM178.881 13.4688V22H177.422V13.4688H178.881ZM181.559 13.4688V14.6406H174.768V13.4688H181.559ZM189.518 20.834V22H184.988V20.834H189.518ZM185.404 13.4688V22H183.934V13.4688H185.404ZM188.926 17.0312V18.1797H184.988V17.0312H188.926ZM189.488 13.4688V14.6406H184.988V13.4688H189.488Z"
        fill="black" fill-opacity="0.87" />
    <defs>
        <clipPath id="clip0_16_16">
            <rect width="25" height="25" fill="white" transform="translate(1 5)" />
        </clipPath>
    </defs>
</svg>
    